…
  map_int(month_abb, ~ifelse(.x %in% month.abb,
    which(month.abb == .x),
    NA
  ))
}
# Apply get_month_int() to the data
flowering_times <- flowering_times %>%
  mutate(
    flowering_start = get_month_int(flowering_start),
    flowering_end   = get_month_int(flowering_end)
  )
flowering_times
```

    ## # A tibble: 43 x 4
    ##    clade               species               flowering_start flowering_end
    ##    <chr>               <chr>                           <int>         <int>
    ##  1 Epischoenus spp.    Schoenus adnatus                    2             8
    ##  2 Epischoenus spp.    Schoenus complanatus               12             3
    ##  3 Epischoenus spp.    Schoenus dregeanus                 12             4
    ##  4 Epischoenus spp.    Schoenus gracilimus                12             3
    ##  5 Epischoenus spp.    Schoenus lucidus                   12            12
    ##  6 Epischoenus spp.    Schoenus quadrangula…              11             5
    ##  7 Epischoenus spp.    Schoenus neovillosus                1             2
    ##  8 S. compar-S. pictus Schoenus arenicola                  7            11
    ##  9 S. compar-S. pictus Schoenus compar                     4             6
    ## 10 S. compar-S. pictus Schoenus pictus                    12             5
    ## # ... with 33 more rows
…
    if (any(is.na(c(.start, .end)))) {
      return(NA)
    } else if (.start > .end) {
      return(c(.start:12, 1:.end))  # e.g. Dec->Apr = 12, 1, 2, 3, 4
    } else if (.start <= .end) {
      return(.start:.end)
    }
  })
}
flowering_times <- flowering_times %>%
  mutate(flowering_months = get_month_seq(flowering_start, flowering_end))
flowering_times
```

    ## # A tibble: 43 x 5
    ##    clade       species      flowering_start flowering_end flowering_months
    ##    <chr>       <chr>                  <int>         <int> <list>          
    ##  1 Epischoenu… Schoenus ad…               2             8 <int [7]>       
    ##  2 Epischoenu… Schoenus co…              12             3 <int [4]>       
    ##  3 Epischoenu… Schoenus dr…              12             4 <int [5]>       
    ##  4 Epischoenu… Schoenus gr…              12             3 <int [4]>       
    ##  5 Epischoenu… Schoenus lu…              12            12 <int [1]>       
    ##  6 Epischoenu… Schoenus qu…              11             5 <int [7]>       
    ##  7 Epischoenu… Schoenus ne…               1             2 <int [2]>       
    ##  8 S. compar-… Schoenus ar…               7            11 <int [5]>       
    ##  9 S. compar-… Schoenus co…               4             6 <int [3]>       
    ## 10 S. compar-… Schoenus pi…              12             5 <int [6]>       
    ## # ... with 33 more rows

Lastly, we just need to reshape this data into a form `ggplot2` can
understand: long-form data.

``` r
flowering_times <- flowering_times %>%
  unnest() %>% # unnest the list-columns so ggplot can understand
  # Arrange species by sub-generic clade
  arrange(clade) %>%
  mutate(species = factor(species, levels = unique(species)))
flowering_times
```

    ## # A tibble: 179 x 5
    ##    clade            species flowering_start flowering_end flowering_months
    ##    <chr>            <fct>             <int>         <int>            <int>
    ##  1 Epischoenus spp. Schoen…               2             8                2
    ##  2 Epischoenus spp. Schoen…               2             8                3
    ##  3 Epischoenus spp. Schoen…               2             8                4
    ##  4 Epischoenus spp. Schoen…               2             8                5
    ##  5 Epischoenus spp. Schoen…               2             8                6
    ##  6 Epischoenus spp. Schoen…               2             8                7
    ##  7 Epischoenus spp. Schoen…               2             8                8
    ##  8 Epischoenus spp. Schoen…              12             3               12
    ##  9 Epischoenus spp. Schoen…              12             3                1
    ## 10 Epischoenus spp. Schoen…              12             3                2
    ## # ... with 169 more rows
…
